<?xml version="1.0" encoding="UTF-8" standalone="no"?>
<!DOCTYPE svg PUBLIC "-//W3C//DTD SVG 1.1//EN"
 "http://www.w3.org/Graphics/SVG/1.1/DTD/svg11.dtd">
<!-- Generated by graphviz version 2.40.1 (20161225.0304)
 -->
<!-- Title: htree Pages: 1 -->
<svg width="99pt" height="260pt"
 viewBox="0.00 0.00 99.23 260.00" xmlns="http://www.w3.org/2000/svg" xmlns:xlink="http://www.w3.org/1999/xlink">
<g id="graph0" class="graph" transform="scale(1 1) rotate(0) translate(4 256)">
<title>htree</title>
<!-- 0 -->
<g id="node1" class="node">
<title>0</title>
<ellipse fill="#dda0dd" stroke="#000000" cx="60" cy="-234" rx="18" ry="18"/>
<text text-anchor="middle" x="60" y="-230.3" font-family="Times,serif" font-size="14.00" fill="#000000">0</text>
</g>
<!-- 2 -->
<g id="node2" class="node">
<title>2</title>
<ellipse fill="#dda0dd" stroke="#000000" cx="60" cy="-162" rx="18" ry="18"/>
<text text-anchor="middle" x="60" y="-158.3" font-family="Times,serif" font-size="14.00" fill="#000000">2</text>
</g>
<!-- 0&#45;&gt;2 -->
<g id="edge1" class="edge">
<title>0&#45;&gt;2</title>
<path fill="none" stroke="#000000" d="M60,-215.8314C60,-208.131 60,-198.9743 60,-190.4166"/>
<polygon fill="#000000" stroke="#000000" points="63.5001,-190.4132 60,-180.4133 56.5001,-190.4133 63.5001,-190.4132"/>
</g>
<!-- 3 -->
<g id="node3" class="node">
<title>3</title>
<ellipse fill="#dda0dd" stroke="#000000" cx="18" cy="-90" rx="18" ry="18"/>
<text text-anchor="middle" x="18" y="-86.3" font-family="Times,serif" font-size="14.00" fill="#000000">3</text>
</g>
<!-- 0&#45;&gt;3 -->
<g id="edge2" class="edge">
<title>0&#45;&gt;3</title>
<path fill="none" stroke="#000000" d="M50.6698,-218.4639C44.7529,-207.9492 37.4083,-193.5562 33,-180 26.438,-159.8206 22.6362,-136.1168 20.5027,-118.1023"/>
<polygon fill="#000000" stroke="#000000" points="23.9612,-117.5289 19.4056,-107.9635 17.0018,-118.282 23.9612,-117.5289"/>
</g>
<!-- 2&#45;&gt;3 -->
<g id="edge5" class="edge">
<title>2&#45;&gt;3</title>
<path fill="none" stroke="#000000" d="M50.8866,-146.3771C45.4379,-137.0364 38.3973,-124.9668 32.2293,-114.3932"/>
<polygon fill="#000000" stroke="#000000" points="35.1576,-112.4667 27.0956,-105.5924 29.1111,-115.9938 35.1576,-112.4667"/>
</g>
<!-- 1 -->
<g id="node4" class="node">
<title>1</title>
<ellipse fill="#dda0dd" stroke="#000000" cx="64" cy="-18" rx="18" ry="18"/>
<text text-anchor="middle" x="64" y="-14.3" font-family="Times,serif" font-size="14.00" fill="#000000">1</text>
</g>
<!-- 3&#45;&gt;1 -->
<g id="edge3" class="edge">
<title>3&#45;&gt;1</title>
<path fill="none" stroke="#000000" d="M27.7554,-74.7307C33.8541,-65.1848 41.8375,-52.6891 48.759,-41.8554"/>
<polygon fill="#000000" stroke="#000000" points="51.8241,-43.5587 54.2586,-33.2473 45.9253,-39.7899 51.8241,-43.5587"/>
</g>
<!-- 1&#45;&gt;0 -->
<g id="edge4" class="edge">
<title>1&#45;&gt;0</title>
<path fill="none" stroke="#000000" d="M70.6035,-35.2164C81.1144,-65.0198 99.27,-128.0234 87,-180 84.5693,-190.2968 79.8578,-200.8688 75.0421,-209.8982"/>
<polygon fill="#000000" stroke="#000000" points="71.9555,-208.2461 70.0771,-218.6731 78.0479,-211.6933 71.9555,-208.2461"/>
</g>
<!-- 1&#45;&gt;2 -->
<g id="edge6" class="edge">
<title>1&#45;&gt;2</title>
<path fill="none" stroke="#000000" d="M63.4975,-36.0896C62.8174,-60.5727 61.5967,-104.5174 60.7925,-133.4713"/>
<polygon fill="#000000" stroke="#000000" points="57.2857,-133.6689 60.5066,-143.7623 64.283,-133.8634 57.2857,-133.6689"/>
</g>
</g>
</svg>
