<?xml version="1.0" encoding="UTF-8" standalone="no"?>
<!DOCTYPE svg PUBLIC "-//W3C//DTD SVG 1.1//EN"
 "http://www.w3.org/Graphics/SVG/1.1/DTD/svg11.dtd">
<!-- Generated by graphviz version 2.40.1 (20161225.0304)
 -->
<!-- Title: rgraph Pages: 1 -->
<svg width="526pt" height="776pt"
 viewBox="0.00 0.00 526.00 775.99" xmlns="http://www.w3.org/2000/svg" xmlns:xlink="http://www.w3.org/1999/xlink">
<g id="graph0" class="graph" transform="scale(1 1) rotate(0) translate(4 771.9862)">
<title>rgraph</title>
<!-- 0 -->
<g id="node1" class="node">
<title>0</title>
<ellipse fill="#dda0dd" stroke="#000000" cx="366" cy="-749.9862" rx="18" ry="18"/>
<text text-anchor="middle" x="366" y="-746.2862" font-family="Times,serif" font-size="14.00" fill="#000000">0</text>
</g>
<!-- 1 -->
<g id="node2" class="node">
<title>1</title>
<ellipse fill="#dda0dd" stroke="#000000" cx="80" cy="-533.9862" rx="18" ry="18"/>
<text text-anchor="middle" x="80" y="-530.2862" font-family="Times,serif" font-size="14.00" fill="#000000">1</text>
</g>
<!-- 0&#45;&gt;1 -->
<g id="edge1" class="edge">
<title>0&#45;&gt;1</title>
<path fill="none" stroke="#000000" stroke-width="3" stroke-dasharray="5,2" d="M347.9705,-747.2663C316.3525,-741.8251 249.8209,-727.3284 203,-695.9862 150.5605,-660.8828 111.3975,-595.8498 92.5278,-559.7763"/>
<polygon fill="#000000" stroke="#000000" stroke-width="3" points="95.4144,-557.733 87.7496,-550.4186 89.1801,-560.9164 95.4144,-557.733"/>
</g>
<!-- 2 -->
<g id="node3" class="node">
<title>2</title>
<ellipse fill="#dda0dd" stroke="#000000" cx="168" cy="-605.9862" rx="18" ry="18"/>
<text text-anchor="middle" x="168" y="-602.2862" font-family="Times,serif" font-size="14.00" fill="#000000">2</text>
</g>
<!-- 0&#45;&gt;2 -->
<g id="edge2" class="edge">
<title>0&#45;&gt;2</title>
<path fill="none" stroke="#000000" stroke-width="3" stroke-dasharray="5,2" d="M348.5327,-745.0172C323.6055,-737.3444 277.1784,-720.8501 244,-695.9862 219.3063,-677.4806 197.319,-649.5229 183.4267,-629.6847"/>
<polygon fill="#000000" stroke="#000000" stroke-width="3" points="186.1639,-627.4867 177.6327,-621.2043 180.3841,-631.4356 186.1639,-627.4867"/>
</g>
<!-- 3 -->
<g id="node4" class="node">
<title>3</title>
<ellipse fill="#dda0dd" stroke="#000000" cx="271" cy="-677.9862" rx="18" ry="18"/>
<text text-anchor="middle" x="271" y="-674.2862" font-family="Times,serif" font-size="14.00" fill="#000000">3</text>
</g>
<!-- 0&#45;&gt;3 -->
<g id="edge3" class="edge">
<title>0&#45;&gt;3</title>
<path fill="none" stroke="#000000" stroke-width="3" stroke-dasharray="5,2" d="M351.5715,-739.0509C336.2268,-727.4212 311.7408,-708.8634 293.7854,-695.2551"/>
<polygon fill="#000000" stroke="#000000" stroke-width="3" points="295.648,-692.2751 285.5642,-689.0243 291.4199,-697.854 295.648,-692.2751"/>
</g>
<!-- 5 -->
<g id="node7" class="node">
<title>5</title>
<ellipse fill="#dda0dd" stroke="#000000" cx="73" cy="-316.4879" rx="18" ry="18"/>
<text text-anchor="middle" x="73" y="-312.7879" font-family="Times,serif" font-size="14.00" fill="#000000">5</text>
</g>
<!-- 0&#45;&gt;5 -->
<g id="edge15" class="edge">
<title>0&#45;&gt;5</title>
<path fill="none" stroke="#000000" d="M358.5399,-733.5348C336.7278,-686.2402 269.8018,-546.7223 194,-443.9862 163.1009,-402.1078 119.6709,-359.443 94.1188,-335.6252"/>
<polygon fill="#000000" stroke="#000000" points="96.2104,-332.7927 86.4894,-328.5793 91.4612,-337.9352 96.2104,-332.7927"/>
</g>
<!-- 7 -->
<g id="node8" class="node">
<title>7</title>
<ellipse fill="#dda0dd" stroke="#000000" cx="150" cy="-316.4879" rx="18" ry="18"/>
<text text-anchor="middle" x="150" y="-312.7879" font-family="Times,serif" font-size="14.00" fill="#000000">7</text>
</g>
<!-- 0&#45;&gt;7 -->
<g id="edge16" class="edge">
<title>0&#45;&gt;7</title>
<path fill="none" stroke="#000000" d="M372.2628,-732.8291C385.8233,-692.7236 414.0477,-590.5898 380,-515.9862 337.1157,-422.0203 225.6929,-355.269 175.3491,-328.9341"/>
<polygon fill="#000000" stroke="#000000" points="176.9063,-325.7992 166.4111,-324.3494 173.7115,-332.0277 176.9063,-325.7992"/>
</g>
<!-- 10 -->
<g id="node11" class="node">
<title>10</title>
<ellipse fill="#dda0dd" stroke="#000000" cx="281" cy="-316.4879" rx="19.4965" ry="19.4965"/>
<text text-anchor="middle" x="281" y="-312.7879" font-family="Times,serif" font-size="14.00" fill="#000000">10</text>
</g>
<!-- 0&#45;&gt;10 -->
<g id="edge17" class="edge">
<title>0&#45;&gt;10</title>
<path fill="none" stroke="#000000" d="M383.7231,-745.1689C405.2388,-738.2607 440.5581,-723.2594 456,-695.9862 495.4159,-626.3702 484.1847,-590.8568 456,-515.9862 425.4651,-434.8724 345.3084,-365.2428 304.9467,-334.02"/>
<polygon fill="#000000" stroke="#000000" points="307.0476,-331.2206 296.9702,-327.95 302.8085,-336.7911 307.0476,-331.2206"/>
</g>
<!-- 14 -->
<g id="node15" class="node">
<title>14</title>
<ellipse fill="#dda0dd" stroke="#000000" cx="451" cy="-169.4913" rx="19.4965" ry="19.4965"/>
<text text-anchor="middle" x="451" y="-165.7913" font-family="Times,serif" font-size="14.00" fill="#000000">14</text>
</g>
<!-- 0&#45;&gt;14 -->
<g id="edge18" class="edge">
<title>0&#45;&gt;14</title>
<path fill="none" stroke="#000000" d="M383.8167,-745.5701C408.0453,-738.7319 451.4053,-723.4194 478,-695.9862 508.468,-664.5576 518,-649.7589 518,-605.9862 518,-605.9862 518,-605.9862 518,-461.9862 518,-362.3534 480.6064,-248.3405 461.6904,-197.0399"/>
<polygon fill="#000000" stroke="#000000" points="464.9547,-195.7764 458.1702,-187.6388 458.3992,-198.2311 464.9547,-195.7764"/>
</g>
<!-- 6 -->
<g id="node5" class="node">
<title>6</title>
<ellipse fill="#dda0dd" stroke="#000000" cx="167" cy="-461.9862" rx="18" ry="18"/>
<text text-anchor="middle" x="167" y="-458.2862" font-family="Times,serif" font-size="14.00" fill="#000000">6</text>
</g>
<!-- 1&#45;&gt;6 -->
<g id="edge6" class="edge">
<title>1&#45;&gt;6</title>
<path fill="none" stroke="#000000" stroke-width="3" stroke-dasharray="5,2" d="M93.9781,-522.4181C107.8033,-510.9765 129.1615,-493.3008 145.2139,-480.0161"/>
<polygon fill="#000000" stroke="#000000" stroke-width="3" points="147.5842,-482.5976 153.0566,-473.5255 143.1212,-477.2048 147.5842,-482.5976"/>
</g>
<!-- 2&#45;&gt;1 -->
<g id="edge19" class="edge">
<title>2&#45;&gt;1</title>
<path fill="none" stroke="#000000" d="M153.8613,-594.4181C139.8771,-582.9765 118.2735,-565.3008 102.0365,-552.0161"/>
<polygon fill="#000000" stroke="#000000" points="104.0596,-549.1491 94.1036,-545.5255 99.6269,-554.5668 104.0596,-549.1491"/>
</g>
<!-- 2&#45;&gt;6 -->
<g id="edge21" class="edge">
<title>2&#45;&gt;6</title>
<path fill="none" stroke="#000000" d="M167.8733,-587.7485C167.7028,-563.1872 167.3976,-519.2336 167.1969,-490.3402"/>
<polygon fill="#000000" stroke="#000000" points="170.6951,-490.0512 167.1256,-480.0758 163.6952,-490.0999 170.6951,-490.0512"/>
</g>
<!-- 4 -->
<g id="node6" class="node">
<title>4</title>
<ellipse fill="#dda0dd" stroke="#000000" cx="18" cy="-389.9862" rx="18" ry="18"/>
<text text-anchor="middle" x="18" y="-386.2862" font-family="Times,serif" font-size="14.00" fill="#000000">4</text>
</g>
<!-- 2&#45;&gt;4 -->
<g id="edge20" class="edge">
<title>2&#45;&gt;4</title>
<path fill="none" stroke="#000000" d="M157.9424,-590.9568C145.9217,-573.0384 125.1518,-542.2183 107,-515.9862 81.9169,-479.7373 52.2973,-438.0149 34.3434,-412.8418"/>
<polygon fill="#000000" stroke="#000000" points="37.1646,-410.7697 28.506,-404.664 31.4672,-414.8366 37.1646,-410.7697"/>
</g>
<!-- 2&#45;&gt;14 -->
<g id="edge22" class="edge">
<title>2&#45;&gt;14</title>
<path fill="none" stroke="#000000" d="M179.8351,-592.1251C206.4935,-560.5847 272.6101,-480.5551 320,-407.9862 368.2483,-334.1027 415.8321,-241.0625 438.0333,-196.1578"/>
<polygon fill="#000000" stroke="#000000" points="441.2268,-197.5952 442.5007,-187.0772 434.9457,-194.5051 441.2268,-197.5952"/>
</g>
<!-- 3&#45;&gt;2 -->
<g id="edge23" class="edge">
<title>3&#45;&gt;2</title>
<path fill="none" stroke="#000000" d="M256.2426,-667.6703C239.2833,-655.8152 211.2317,-636.2064 191.3118,-622.2818"/>
<polygon fill="#000000" stroke="#000000" points="193.2663,-619.3777 183.065,-616.517 189.2558,-625.115 193.2663,-619.3777"/>
</g>
<!-- 3&#45;&gt;7 -->
<g id="edge24" class="edge">
<title>3&#45;&gt;7</title>
<path fill="none" stroke="#000000" d="M260.2337,-663.0277C253.0914,-652.527 243.9682,-637.9242 238,-623.9862 221.7046,-585.9304 214,-575.384 214,-533.9862 214,-533.9862 214,-533.9862 214,-461.9862 214,-415.1724 185.8965,-366.511 166.9356,-339.0074"/>
<polygon fill="#000000" stroke="#000000" points="169.7891,-336.9806 161.1479,-330.8503 164.0801,-341.0313 169.7891,-336.9806"/>
</g>
<!-- 8 -->
<g id="node9" class="node">
<title>8</title>
<ellipse fill="#dda0dd" stroke="#000000" cx="320" cy="-242.9896" rx="18" ry="18"/>
<text text-anchor="middle" x="320" y="-239.2896" font-family="Times,serif" font-size="14.00" fill="#000000">8</text>
</g>
<!-- 3&#45;&gt;8 -->
<g id="edge25" class="edge">
<title>3&#45;&gt;8</title>
<path fill="none" stroke="#000000" d="M271.4873,-659.6722C272.0967,-641.4566 273.3944,-612.7314 276,-587.9862 284.4781,-507.4692 293.8664,-488.3116 304,-407.9862 310.0196,-360.271 314.9981,-304.5433 317.7297,-271.5957"/>
<polygon fill="#000000" stroke="#000000" points="321.2416,-271.5919 318.5682,-261.3399 314.2649,-271.0214 321.2416,-271.5919"/>
</g>
<!-- 13 -->
<g id="node13" class="node">
<title>13</title>
<ellipse fill="#dda0dd" stroke="#000000" cx="451" cy="-94.4948" rx="19.4965" ry="19.4965"/>
<text text-anchor="middle" x="451" y="-90.7948" font-family="Times,serif" font-size="14.00" fill="#000000">13</text>
</g>
<!-- 3&#45;&gt;13 -->
<g id="edge26" class="edge">
<title>3&#45;&gt;13</title>
<path fill="none" stroke="#000000" d="M280.7955,-662.3553C317.0681,-603.3507 443.4801,-387.4154 479,-188.9896 482.054,-171.929 483.0125,-166.854 479,-149.9931 476.5523,-139.7076 471.8774,-129.1666 467.0384,-120.072"/>
<polygon fill="#000000" stroke="#000000" points="469.9873,-118.1761 462.0227,-111.1893 463.8919,-121.618 469.9873,-118.1761"/>
</g>
<!-- 3&#45;&gt;14 -->
<g id="edge27" class="edge">
<title>3&#45;&gt;14</title>
<path fill="none" stroke="#000000" d="M278.1344,-661.1488C301.715,-605.0904 378.461,-419.3515 428,-260.9896 434.4588,-240.3428 440.3752,-216.6452 444.5897,-198.5407"/>
<polygon fill="#000000" stroke="#000000" points="448.0472,-199.1215 446.8657,-188.5927 441.2235,-197.5602 448.0472,-199.1215"/>
</g>
<!-- 6&#45;&gt;4 -->
<g id="edge4" class="edge">
<title>6&#45;&gt;4</title>
<path fill="none" stroke="#000000" stroke-width="3" stroke-dasharray="5,2" d="M149.6385,-456.1838C142.0749,-452.5066 133.6667,-447.7513 126,-443.9862 89.1748,-425.9011 77.8252,-426.0712 41,-407.9862 40.6889,-407.8334 40.3766,-407.679 40.0633,-407.5231"/>
<polygon fill="#000000" stroke="#000000" stroke-width="3" points="41.4416,-404.2926 30.9659,-402.7083 38.1672,-410.4796 41.4416,-404.2926"/>
</g>
<!-- 6&#45;&gt;5 -->
<g id="edge32" class="edge">
<title>6&#45;&gt;5</title>
<path fill="none" stroke="#000000" d="M150.3128,-455.1825C134.0326,-445.9789 110.8179,-428.3508 97,-407.9862 83.9408,-388.7397 75.3814,-363.7173 71.6617,-344.7055"/>
<polygon fill="#000000" stroke="#000000" points="75.078,-343.8997 70.0641,-334.5664 68.1634,-344.9893 75.078,-343.8997"/>
</g>
<!-- 6&#45;&gt;7 -->
<g id="edge33" class="edge">
<title>6&#45;&gt;7</title>
<path fill="none" stroke="#000000" d="M160.4923,-445.0109C155.0177,-420.4419 149.3498,-374.6624 147.8376,-344.8954"/>
<polygon fill="#000000" stroke="#000000" points="151.3291,-344.5916 147.4765,-334.7221 144.3335,-344.84 151.3291,-344.5916"/>
</g>
<!-- 12 -->
<g id="node14" class="node">
<title>12</title>
<ellipse fill="#dda0dd" stroke="#000000" cx="404" cy="-19.4983" rx="19.4965" ry="19.4965"/>
<text text-anchor="middle" x="404" y="-15.7983" font-family="Times,serif" font-size="14.00" fill="#000000">12</text>
</g>
<!-- 6&#45;&gt;12 -->
<g id="edge34" class="edge">
<title>6&#45;&gt;12</title>
<path fill="none" stroke="#000000" d="M171.8077,-444.4085C191.5397,-372.6894 266.4685,-104.6056 292,-74.9965 313.7967,-49.7187 349.8314,-34.7818 375.1272,-26.8846"/>
<polygon fill="#000000" stroke="#000000" points="376.2974,-30.1888 384.9059,-24.0127 374.3248,-23.4725 376.2974,-30.1888"/>
</g>
<!-- 4&#45;&gt;6 -->
<g id="edge28" class="edge">
<title>4&#45;&gt;6</title>
<path fill="none" stroke="#000000" d="M35.3615,-395.7885C42.9251,-399.4657 51.3333,-404.221 59,-407.9862 95.8252,-426.0712 107.1748,-425.9011 144,-443.9862 144.3111,-444.1389 144.6234,-444.2934 144.9367,-444.4493"/>
<polygon fill="#000000" stroke="#000000" points="143.5584,-447.6797 154.0341,-449.264 146.8328,-441.4928 143.5584,-447.6797"/>
</g>
<!-- 4&#45;&gt;5 -->
<g id="edge5" class="edge">
<title>4&#45;&gt;5</title>
<path fill="none" stroke="#000000" stroke-width="3" stroke-dasharray="5,2" d="M24.9556,-372.9394C32.0475,-361.8833 42.7704,-347.4491 52.4043,-335.9441"/>
<polygon fill="#000000" stroke="#000000" stroke-width="3" points="55.2395,-338.0175 59.1594,-328.1745 49.9569,-333.4247 55.2395,-338.0175"/>
</g>
<!-- 4&#45;&gt;7 -->
<g id="edge7" class="edge">
<title>4&#45;&gt;7</title>
<path fill="none" stroke="#000000" stroke-width="3" stroke-dasharray="5,2" d="M32.5217,-379.1412C54.6804,-365.4963 96.5517,-342.1572 123.9805,-328.1416"/>
<polygon fill="#000000" stroke="#000000" stroke-width="3" points="125.6556,-331.217 133.024,-323.6041 122.5164,-324.9603 125.6556,-331.217"/>
</g>
<!-- 4&#45;&gt;8 -->
<g id="edge8" class="edge">
<title>4&#45;&gt;8</title>
<path fill="none" stroke="#000000" stroke-width="3" stroke-dasharray="5,2" d="M35.738,-385.5214C65.724,-377.6351 127.9592,-359.7968 177,-335.9862 222.193,-314.0437 270.2846,-280.3457 297.5882,-260.1072"/>
<polygon fill="#000000" stroke="#000000" stroke-width="3" points="299.7841,-262.8355 305.6926,-254.0412 295.5895,-257.2314 299.7841,-262.8355"/>
</g>
<!-- 4&#45;&gt;10 -->
<g id="edge29" class="edge">
<title>4&#45;&gt;10</title>
<path fill="none" stroke="#000000" d="M35.6646,-385.0496C80.2423,-372.5919 197.627,-339.7874 252.264,-324.5185"/>
<polygon fill="#000000" stroke="#000000" points="253.3207,-327.8574 262.0097,-321.7949 251.4366,-321.1157 253.3207,-327.8574"/>
</g>
<!-- 5&#45;&gt;6 -->
<g id="edge31" class="edge">
<title>5&#45;&gt;6</title>
<path fill="none" stroke="#000000" d="M82.4537,-332.1481C89.5093,-351.2935 98.7867,-384.0913 115,-407.9862 123.7963,-420.95 136.4005,-432.8048 147.1416,-442.0834"/>
<polygon fill="#000000" stroke="#000000" points="145.0052,-444.8606 154.8983,-448.6523 149.5291,-439.5188 145.0052,-444.8606"/>
</g>
<!-- 5&#45;&gt;4 -->
<g id="edge30" class="edge">
<title>5&#45;&gt;4</title>
<path fill="none" stroke="#000000" d="M66.2603,-333.1974C59.2089,-344.2372 48.4428,-358.7527 38.7507,-370.3447"/>
<polygon fill="#000000" stroke="#000000" points="35.8637,-368.3313 31.9515,-378.1774 41.1499,-372.92 35.8637,-368.3313"/>
</g>
<!-- 11 -->
<g id="node12" class="node">
<title>11</title>
<ellipse fill="#dda0dd" stroke="#000000" cx="320" cy="-94.4948" rx="19.4965" ry="19.4965"/>
<text text-anchor="middle" x="320" y="-90.7948" font-family="Times,serif" font-size="14.00" fill="#000000">11</text>
</g>
<!-- 5&#45;&gt;11 -->
<g id="edge11" class="edge">
<title>5&#45;&gt;11</title>
<path fill="none" stroke="#000000" stroke-width="3" stroke-dasharray="5,2" d="M86.6316,-304.2364C127.2513,-267.7291 247.75,-159.43 297.8087,-114.4394"/>
<polygon fill="#000000" stroke="#000000" stroke-width="3" points="300.3903,-116.8251 305.4882,-107.5374 295.7111,-111.6188 300.3903,-116.8251"/>
</g>
<!-- 7&#45;&gt;6 -->
<g id="edge36" class="edge">
<title>7&#45;&gt;6</title>
<path fill="none" stroke="#000000" d="M156.5316,-333.5704C162.025,-358.2834 167.7068,-404.2945 169.1839,-434.006"/>
<polygon fill="#000000" stroke="#000000" points="165.6908,-434.2704 169.5297,-444.1452 172.6867,-434.0317 165.6908,-434.2704"/>
</g>
<!-- 7&#45;&gt;4 -->
<g id="edge35" class="edge">
<title>7&#45;&gt;4</title>
<path fill="none" stroke="#000000" d="M135.3437,-327.4157C113.1061,-341.0993 71.2259,-364.4383 43.8556,-378.4162"/>
<polygon fill="#000000" stroke="#000000" points="42.2061,-375.3279 34.8355,-382.9388 45.3436,-381.5854 42.2061,-375.3279"/>
</g>
<!-- 9 -->
<g id="node10" class="node">
<title>9</title>
<ellipse fill="#dda0dd" stroke="#000000" cx="320" cy="-169.4913" rx="18" ry="18"/>
<text text-anchor="middle" x="320" y="-165.7913" font-family="Times,serif" font-size="14.00" fill="#000000">9</text>
</g>
<!-- 8&#45;&gt;9 -->
<g id="edge9" class="edge">
<title>8&#45;&gt;9</title>
<path fill="none" stroke="#000000" stroke-width="3" stroke-dasharray="5,2" d="M314.1992,-225.9429C313.274,-217.2853 313.0252,-206.5565 313.4527,-196.7847"/>
<polygon fill="#000000" stroke="#000000" stroke-width="3" points="316.9514,-196.9267 314.182,-186.7002 309.9697,-196.4217 316.9514,-196.9267"/>
</g>
<!-- 8&#45;&gt;10 -->
<g id="edge10" class="edge">
<title>8&#45;&gt;10</title>
<path fill="none" stroke="#000000" stroke-width="3" stroke-dasharray="5,2" d="M316.404,-260.8592C312.2064,-270.6177 305.8804,-282.8146 299.6285,-293.2988"/>
<polygon fill="#000000" stroke="#000000" stroke-width="3" points="296.5426,-291.6324 294.2089,-301.967 302.478,-295.3434 296.5426,-291.6324"/>
</g>
<!-- 8&#45;&gt;11 -->
<g id="edge37" class="edge">
<title>8&#45;&gt;11</title>
<path fill="none" stroke="#000000" d="M330.0771,-227.6628C336.3095,-217.2364 343.7249,-202.8632 347,-188.9896 350.982,-172.1215 350.8904,-166.8826 347,-149.9931 344.6437,-139.7637 340.1367,-129.2359 335.4701,-120.1362"/>
<polygon fill="#000000" stroke="#000000" points="338.4856,-118.3549 330.6328,-111.2426 332.3363,-121.6996 338.4856,-118.3549"/>
</g>
<!-- 8&#45;&gt;13 -->
<g id="edge38" class="edge">
<title>8&#45;&gt;13</title>
<path fill="none" stroke="#000000" d="M332.0894,-229.2858C354.6493,-203.7129 403.3657,-148.4906 430.9298,-117.2454"/>
<polygon fill="#000000" stroke="#000000" points="433.7879,-119.2961 437.7788,-109.4817 428.5386,-114.6652 433.7879,-119.2961"/>
</g>
<!-- 8&#45;&gt;14 -->
<g id="edge39" class="edge">
<title>8&#45;&gt;14</title>
<path fill="none" stroke="#000000" d="M335.9284,-233.976C341.0521,-231.0911 346.7587,-227.893 352,-224.9896 381.2284,-208.7987 388.9456,-205.4906 418,-188.9896 420.4122,-187.6196 422.9139,-186.1788 425.4119,-184.7265"/>
<polygon fill="#000000" stroke="#000000" points="427.4248,-187.6034 434.2769,-179.5225 423.8811,-181.5667 427.4248,-187.6034"/>
</g>
<!-- 9&#45;&gt;8 -->
<g id="edge40" class="edge">
<title>9&#45;&gt;8</title>
<path fill="none" stroke="#000000" d="M325.818,-186.7002C326.7348,-195.3835 326.9752,-206.1192 326.5393,-215.8789"/>
<polygon fill="#000000" stroke="#000000" points="323.0421,-215.7135 325.8008,-225.9429 330.0233,-216.2259 323.0421,-215.7135"/>
</g>
<!-- 9&#45;&gt;11 -->
<g id="edge41" class="edge">
<title>9&#45;&gt;11</title>
<path fill="none" stroke="#000000" d="M320,-151.3368C320,-143.2357 320,-133.4758 320,-124.3473"/>
<polygon fill="#000000" stroke="#000000" points="323.5001,-124.0585 320,-114.0585 316.5001,-124.0585 323.5001,-124.0585"/>
</g>
<!-- 10&#45;&gt;8 -->
<g id="edge42" class="edge">
<title>10&#45;&gt;8</title>
<path fill="none" stroke="#000000" d="M285.2235,-297.1771C289.6294,-287.1768 296.0623,-274.9337 302.3101,-264.6167"/>
<polygon fill="#000000" stroke="#000000" points="305.2815,-266.4666 307.6974,-256.1508 299.3758,-262.7084 305.2815,-266.4666"/>
</g>
<!-- 10&#45;&gt;13 -->
<g id="edge13" class="edge">
<title>10&#45;&gt;13</title>
<path fill="none" stroke="#000000" stroke-width="3" stroke-dasharray="5,2" d="M276.2586,-297.454C269.1016,-263.894 259.6564,-193.6297 293,-149.9931 308.9139,-129.1667 380.7884,-110.1465 421.9015,-100.7194"/>
<polygon fill="#000000" stroke="#000000" stroke-width="3" points="422.8901,-104.0847 431.8816,-98.4808 421.358,-97.2544 422.8901,-104.0847"/>
</g>
<!-- 10&#45;&gt;14 -->
<g id="edge43" class="edge">
<title>10&#45;&gt;14</title>
<path fill="none" stroke="#000000" d="M296.0216,-304.0189C309.4516,-292.8327 329.6347,-275.9264 347,-260.9896 375.328,-236.6233 407.5799,-208.1294 428.5574,-189.494"/>
<polygon fill="#000000" stroke="#000000" points="431.133,-191.8874 436.2798,-182.6267 426.4813,-186.6566 431.133,-191.8874"/>
</g>
<!-- 13&#45;&gt;12 -->
<g id="edge12" class="edge">
<title>13&#45;&gt;12</title>
<path fill="none" stroke="#000000" stroke-width="3" stroke-dasharray="5,2" d="M440.5692,-77.8506C434.4843,-68.1411 426.6852,-55.6964 419.8537,-44.7956"/>
<polygon fill="#000000" stroke="#000000" stroke-width="3" points="422.6778,-42.7108 414.4017,-36.0959 416.7463,-46.4281 422.6778,-42.7108"/>
</g>
<!-- 13&#45;&gt;14 -->
<g id="edge44" class="edge">
<title>13&#45;&gt;14</title>
<path fill="none" stroke="#000000" d="M456.9273,-113.1538C457.7097,-121.3528 457.934,-131.1752 457.6004,-140.3053"/>
<polygon fill="#000000" stroke="#000000" points="454.0897,-140.3658 456.9524,-150.5666 461.0758,-140.8071 454.0897,-140.3658"/>
</g>
<!-- 12&#45;&gt;14 -->
<g id="edge14" class="edge">
<title>12&#45;&gt;14</title>
<path fill="none" stroke="#000000" stroke-width="3" stroke-dasharray="5,2" d="M406.3721,-39.0864C409.0828,-58.4848 414.3069,-88.8467 423,-113.9931 426.4544,-123.9856 431.3655,-134.4578 436.1125,-143.5792"/>
<polygon fill="#000000" stroke="#000000" stroke-width="3" points="433.1057,-145.3775 440.932,-152.5189 439.2674,-142.0557 433.1057,-145.3775"/>
</g>
<!-- 14&#45;&gt;13 -->
<g id="edge45" class="edge">
<title>14&#45;&gt;13</title>
<path fill="none" stroke="#000000" d="M445.0476,-150.5666C444.2773,-142.3328 444.0649,-132.5006 444.4106,-123.3857"/>
<polygon fill="#000000" stroke="#000000" points="447.9196,-123.3589 445.0727,-113.1538 440.9342,-122.9068 447.9196,-123.3589"/>
</g>
</g>
</svg>
